…
  # If null and numeric, replace with mean value for that column
  if(is.numeric(input_x)) {replace(input_x, is.na(input_x), mean(input_x,na.rm = TRUE))}
  
  # If null and character, replace with "virginica"
  else if(!is.numeric(input_x)) {replace(input_x, is.na(input_x), "virginica")}
  
}

# map it
complete_iris = map_df(iris_with_missing, ~ replace_iris(.x))

complete_iris
```

    ## # A tibble: 150 x 5
    ##    Sepal.Length Sepal.Width Petal.Length Petal.Width Species
    ##           <dbl>       <dbl>        <dbl>       <dbl> <chr>  
    ##  1         5.1          3.5         1.4         0.2  setosa 
    ##  2         4.9          3           1.4         0.2  setosa 
    ##  3         4.7          3.2         1.3         0.2  setosa 
    ##  4         4.6          3.1         1.5         1.19 setosa 
    ##  5         5            3.6         1.4         0.2  setosa 
    ##  6         5.4          3.9         1.7         0.4  setosa 
    ##  7         5.82         3.4         1.4         0.3  setosa 
    ##  8         5            3.4         1.5         0.2  setosa 
    ##  9         4.4          2.9         1.4         0.2  setosa 
    ## 10         4.9          3.1         3.77        0.1  setosa 
    ## # … with 140 more rows
…
# visualize results from function

output = 
  vector("list", length = 100)
  for (i in 1:100) {
  
  output[[i]] = sim_regression(beta1 = 1)
  
}

bind_rows(output) 
```

    ## # A tibble: 200 x 5
    ##    term        estimate std.error statistic p.value
    ##    <chr>          <dbl>     <dbl>     <dbl>   <dbl>
    ##  1 (Intercept)   0.362       1.27    0.284  0.779  
    ##  2 x            -1.44        1.39   -1.04   0.308  
    ##  3 (Intercept)   3.16        1.21    2.60   0.0146 
    ##  4 x             0.634       1.23    0.513  0.612  
    ##  5 (Intercept)   0.881       1.19    0.738  0.467  
    ##  6 x             3.10        1.20    2.58   0.0155 
    ##  7 (Intercept)   0.629       1.21    0.518  0.609  
    ##  8 x             0.0375      1.20    0.0311 0.975  
    ##  9 (Intercept)   4.09        1.20    3.42   0.00196
    ## 10 x             2.61        1.20    2.17   0.0388 
    ## # … with 190 more rows

``` r
sim_results = 
  tibble(beta_ones= c(1,2,3,4,5,6)) %>%
  mutate(
    output_list = map(.x = beta_ones, ~ rerun(1000, sim_regression(beta1 = .x))),
    beta_hats = map(output_list, bind_rows)) %>% 
  select(-output_list) %>% 
  unnest(beta_hats) %>%
  filter(term != "(Intercept)") 

sim_results
```

    ## # A tibble: 6,000 x 6
    ##    beta_ones term  estimate std.error statistic p.value
    ##        <dbl> <chr>    <dbl>     <dbl>     <dbl>   <dbl>
    ##  1         1 x       2.38       1.05     2.26    0.0316
    ##  2         1 x       0.652      1.66     0.392   0.698 
    ##  3         1 x      -2.44       1.58    -1.54    0.134 
    ##  4         1 x       0.245      1.32     0.186   0.854 
    ##  5         1 x       0.138      1.27     0.109   0.914 
    ##  6         1 x      -0.120      1.30    -0.0924  0.927 
    ##  7         1 x       0.612      0.922    0.663   0.513 
    ##  8         1 x       0.0846     0.876    0.0966  0.924 
    ##  9         1 x      -0.616      1.38    -0.448   0.658 
    ## 10         1 x       2.35       1.11     2.12    0.0427
    ## # … with 5,990 more rows
…
